add_only/cpu_hw.vcd
$date
	Mon Nov 21 19:47:46 2016
$end
$version
	Icarus Verilog
$end
$timescale
	1ps
$end
$scope module testbench $end
$var reg 1 ! Clk $end
$var reg 1 " Rst $end
$var reg 32 # cycles [31:0] $end
$var reg 32 $ i [31:0] $end
$scope module cpu $end
$var wire 1 ! clk $end
$var wire 1 " rst $end
$var wire 32 % XM_RegtoMem [31:0] $end
$var wire 5 & XM_RD [4:0] $end
$var wire 3 ' XM_MemCtr [2:0] $end
$var wire 3 ( XM_BranchCtr [2:0] $end
$var wire 32 ) XM_BranchAddr [31:0] $end
$var wire 32 * XM_ALUoutBK [31:0] $end
$var wire 32 + XM_ALUout [31:0] $end
$var wire 5 , MW_RD [4:0] $end
$var wire 32 - MW_ALUoutBK [31:0] $end
$var wire 32 . MW_ALUout [31:0] $end
$var wire 32 / FD_PC [31:0] $end
$var wire 3 0 FD_MemCtr [2:0] $end
$var wire 32 1 FD_IR [31:0] $end
$var wire 3 2 FD_BranchCtr [2:0] $end
$var wire 32 3 FD_BranchAddr [31:0] $end
$var wire 32 4 DX_RegtoMem [31:0] $end
$var wire 5 5 DX_RD [4:0] $end
$var wire 3 6 DX_MemCtr [2:0] $end
$var wire 3 7 DX_BranchCtr [2:0] $end
$var wire 32 8 DX_BranchAddr [31:0] $end
$var wire 3 9 BranchCtr [2:0] $end
$var wire 32 : BranchAddr [31:0] $end
$var wire 32 ; B [31:0] $end
$var wire 3 < ALUctr [2:0] $end
$var wire 32 = A [31:0] $end
$scope module EXE $end
$var wire 1 > ALUop $end
$var wire 1 ! clk $end
$var wire 1 " rst $end
$var wire 32 ? DX_RegtoMem [31:0] $end
$var wire 5 @ DX_RD [4:0] $end
$var wire 3 A DX_MemCtr [2:0] $end
$var wire 3 B DX_BranchCtr [2:0] $end
$var wire 32 C DX_BranchAddr [31:0] $end
$var wire 32 D B [31:0] $end
$var wire 3 E ALUctr [2:0] $end
$var wire 32 F A [31:0] $end
$var reg 32 G ALUout [31:0] $end
$var reg 32 H ALUoutBK [31:0] $end
$var reg 32 I XM_BranchAddr [31:0] $end
$var reg 3 J XM_BranchCtr [2:0] $end
$var reg 3 K XM_MemCtr [2:0] $end
$var reg 5 L XM_RD [4:0] $end
$var reg 32 M XM_RegtoMem [31:0] $end
$upscope $end
$scope module ID $end
$var wire 32 N MW_ALUoutBK [31:0] $end
$var wire 1 ! clk $end
$var wire 1 " rst $end
$var wire 32 O PC [31:0] $end
$var wire 5 P MW_RD [4:0] $end
$var wire 32 Q MW_ALUout [31:0] $end
$var wire 32 R IR [31:0] $end
$var wire 3 S FD_MemCtr [2:0] $end
$var wire 3 T FD_BranchCtr [2:0] $end
$var wire 32 U FD_BranchAddr [31:0] $end
$var reg 32 V A [31:0] $end
$var reg 3 W ALUctr [2:0] $end
$var reg 32 X B [31:0] $end
$var reg 32 Y DX_BranchAddr [31:0] $end
$var reg 3 Z DX_BranchCtr [2:0] $end
$var reg 3 [ DX_MemCtr [2:0] $end
$var reg 64 \ HILO [63:0] $end
$var reg 5 ] RD [4:0] $end
$var reg 32 ^ RegtoMem [31:0] $end
$upscope $end
$scope module IF $end
$var wire 1 ! clk $end
$var wire 1 " rst $end
$var wire 3 _ BranchCtr [2:0] $end
$var wire 32 ` BranchAddr [31:0] $end
$var reg 32 a FD_BranchAddr [31:0] $end
$var reg 3 b FD_BranchCtr [2:0] $end
$var reg 32 c IR [31:0] $end
$var reg 32 d PC [31:0] $end
$upscope $end
$scope module MEM $end
$var wire 32 e ALUout [31:0] $end
$var wire 32 f ALUoutBK [31:0] $end
$var wire 32 g XM_BranchAddr [31:0] $end
$var wire 3 h XM_BranchCtr [2:0] $end
$var wire 3 i XM_MemCtr [2:0] $end
$var wire 5 j XM_RD [4:0] $end
$var wire 32 k XM_RegtoMem [31:0] $end
$var wire 1 ! clk $end
$var wire 1 " rst $end
$var reg 32 l BranchAddr [31:0] $end
$var reg 3 m BranchCtr [2:0] $end
$var reg 3 n FD_MemCtr [2:0] $end
$var reg 32 o MW_ALUout [31:0] $end
$var reg 32 p MW_ALUoutBK [31:0] $end
$var reg 5 q MW_RD [4:0] $end
$upscope $end
$upscope $end
$upscope $end
$enddefinitions $end
#0
$dumpvars
b0 q
bx p
b0 o
bx n
b0 m
b0 l
bx k
b0 j
b0 i
b0 h
b0 g
bx f
b0 e
b0 d
b0 c
b0 b
b0 a
b0 `
b0 _
b0 ^
b0 ]
bx \
b0 [
b0 Z
b0 Y
b0 X
b0 W
b0 V
b0 U
b0 T
bx S
b0 R
b0 Q
b0 P
b0 O
bz N
bx M
b0 L
b0 K
b0 J
b0 I
bx H
b0 G
b0 F
b0 E
b0 D
b0 C
b0 B
b0 A
b0 @
b0 ?
z>
b0 =
b0 <
b0 ;
b0 :
b0 9
b0 8
b0 7
b0 6
b0 5
b0 4
b0 3
b0 2
b0 1
bx 0
b0 /
b0 .
bx -
b0 ,
b0 +
bx *
b0 )
b0 (
b0 '
b0 &
bx %
b100000 $
b0 #
1"
1!
$end
#10000
0!
#12000
0"
#20000
b0 %
b0 M
b0 k
b100 /
b100 O
b100 d
b10001100000000100000000000000001 1
b10001100000000100000000000000001 R
b10001100000000100000000000000001 c
b1 #
b0 0
b0 S
b0 n
1!
#30000
0!
#40000
b10001100000000010000000000000000 1
b10001100000000010000000000000000 R
b10001100000000010000000000000000 c
b1000 /
b1000 O
b1000 d
b1 6
b1 A
b1 [
b10 5
b10 @
b10 ]
b1 ;
b1 D
b1 X
b10 #
1!
#50000
0!
#60000
b1 +
b1 G
b1 e
b1 '
b1 K
b1 i
b10 &
b10 L
b10 j
b1 5
b1 @
b1 ]
b0 ;
b0 D
b0 X
b1100 /
b1100 O
b1100 d
b100000 1
b100000 R
b100000 c
b11 #
1!
#70000
0!
#80000
b10000 /
b10000 O
b10000 d
b0 6
b0 A
b0 [
b0 5
b0 @
b0 ]
b1 &
b1 L
b1 j
b0 +
b0 G
b0 e
b10 ,
b10 P
b10 q
b1 0
b1 S
b1 n
b100 #
1!
#90000
0!
#100000
b0 '
b0 K
b0 i
b0 &
b0 L
b0 j
b10100 /
b10100 O
b10100 d
b10000010000000000000000010000 1
b10000010000000000000000010000 R
b10000010000000000000000010000 c
b101 #
b1 ,
b1 P
b1 q
b1010111 .
b1010111 Q
b1010111 o
1!
#110000
0!
#120000
b100000 1
b100000 R
b100000 c
b11000 /
b11000 O
b11000 d
b1 7
b1 B
b1 Z
b1010100 8
b1010100 C
b1010100 Y
b111 6
b111 A
b111 [
b11 <
b11 E
b11 W
b0 ,
b0 P
b0 q
b0 .
b0 Q
b0 o
b0 0
b0 S
b0 n
b110 #
1!
#130000
0!
#140000
b1010100 )
b1010100 I
b1010100 g
b1 (
b1 J
b1 h
b111 '
b111 K
b111 i
b0 <
b0 E
b0 W
b0 6
b0 A
b0 [
b0 8
b0 C
b0 Y
b0 7
b0 B
b0 Z
b11100 /
b11100 O
b11100 d
b111 #
1!
#150000
0!
#160000
b1000100000000000011010 1
b1000100000000000011010 R
b1000100000000000011010 c
b100000 /
b100000 O
b100000 d
b0 )
b0 I
b0 g
b0 (
b0 J
b0 h
b0 '
b0 K
b0 i
b111 0
b111 S
b111 n
b1010100 :
b1010100 `
b1010100 l
b1 9
b1 _
b1 m
b1000 #
1!
#170000
0!
#180000
b100 <
b100 E
b100 W
b110 6
b110 A
b110 [
b1010111 =
b1010111 F
b1010111 V
b1010100 3
b1010100 U
b1010100 a
b1 2
b1 T
b1 b
b1011000 /
b1011000 O
b1011000 d
b100000 1
b100000 R
b100000 c
b1001 #
b0 0
b0 S
b0 n
b0 :
b0 `
b0 l
b0 9
b0 _
b0 m
1!
#190000
0!
#200000
b1011100 /
b1011100 O
b1011100 d
b0 3
b0 U
b0 a
b0 2
b0 T
b0 b
b0 =
b0 F
b0 V
b0 <
b0 E
b0 W
b0 6
b0 A
b0 [
b1010100 8
b1010100 C
b1010100 Y
b0 7
b0 B
b0 Z
b110 '
b110 K
b110 i
bx +
bx G
bx e
b1010 #
1!
#210000
0!
#220000
b0 +
b0 G
b0 e
b1010100 )
b1010100 I
b1010100 g
b0 '
b0 K
b0 i
b0 8
b0 C
b0 Y
b1100000 /
b1100000 O
b1100000 d
b1011 #
bx .
bx Q
bx o
b110 0
b110 S
b110 n
1!
#230000
0!
#240000
b1100100 /
b1100100 O
b1100100 d
b0 )
b0 I
b0 g
bxzzzzzzzzzzzzzzzzzzzzzzzzzzzzzzzz \
b0 .
b0 Q
b0 o
b0 0
b0 S
b0 n
b1010100 :
b1010100 `
b1010100 l
b1100 #
1!
#250000
0!
#260000
b1101000 /
b1101000 O
b1101000 d
b1010100 3
b1010100 U
b1010100 a
b1101 #
b0 :
b0 `
b0 l
1!
#270000
0!
#280000
b1101100 /
b1101100 O
b1101100 d
b0 3
b0 U
b0 a
b1010100 8
b1010100 C
b1010100 Y
b1110 #
1!
#290000
0!
#300000
b1010100 )
b1010100 I
b1010100 g
b0 8
b0 C
b0 Y
b1110000 /
b1110000 O
b1110000 d
b1111 #
1!
#310000
0!
#320000
b1110100 /
b1110100 O
b1110100 d
b0 )
b0 I
b0 g
b1010100 :
b1010100 `
b1010100 l
b10000 #
1!
#330000
0!
#340000
b1111000 /
b1111000 O
b1111000 d
b1010100 3
b1010100 U
b1010100 a
b10001 #
b0 :
b0 `
b0 l
1!
#350000
0!
#360000
b1111100 /
b1111100 O
b1111100 d
b0 3
b0 U
b0 a
b1010100 8
b1010100 C
b1010100 Y
b10010 #
1!
#370000
0!
#380000
b1010100 )
b1010100 I
b1010100 g
b0 8
b0 C
b0 Y
b10000000 /
b10000000 O
b10000000 d
b10011 #
1!
#390000
0!
#400000
b10000100 /
b10000100 O
b10000100 d
b0 )
b0 I
b0 g
b1010100 :
b1010100 `
b1010100 l
b10100 #
1!
#410000
0!
#420000
b10001000 /
b10001000 O
b10001000 d
b1010100 3
b1010100 U
b1010100 a
b10101 #
b0 :
b0 `
b0 l
1!
#430000
0!
#440000
b10001100 /
b10001100 O
b10001100 d
b0 3
b0 U
b0 a
b1010100 8
b1010100 C
b1010100 Y
b10110 #
1!
#450000
0!
#460000
b1010100 )
b1010100 I
b1010100 g
b0 8
b0 C
b0 Y
b10010000 /
b10010000 O
b10010000 d
b10111 #
1!
#470000
0!
#480000
b10010100 /
b10010100 O
b10010100 d
b0 )
b0 I
b0 g
b1010100 :
b1010100 `
b1010100 l
b11000 #
1!
#490000
0!
#500000
b10011000 /
b10011000 O
b10011000 d
b1010100 3
b1010100 U
b1010100 a
b11001 #
b0 :
b0 `
b0 l
1!
#510000
0!
#520000
b10011100 /
b10011100 O
b10011100 d
b0 3
b0 U
b0 a
b1010100 8
b1010100 C
b1010100 Y
b11010 #
1!
#530000
0!
#540000
b1010100 )
b1010100 I
b1010100 g
b0 8
b0 C
b0 Y
b10100000 /
b10100000 O
b10100000 d
b11011 #
1!
#550000
0!
#560000
b10100100 /
b10100100 O
b10100100 d
b0 )
b0 I
b0 g
b1010100 :
b1010100 `
b1010100 l
b11100 #
1!
#570000
0!
#580000
b10101000 /
b10101000 O
b10101000 d
b1010100 3
b1010100 U
b1010100 a
b11101 #
b0 :
b0 `
b0 l
1!
#590000
0!
#600000
b10101100 /
b10101100 O
b10101100 d
b0 3
b0 U
b0 a
b1010100 8
b1010100 C
b1010100 Y
b11110 #
1!
#610000
0!
#620000
b1010100 )
b1010100 I
b1010100 g
b0 8
b0 C
b0 Y
b10110000 /
b10110000 O
b10110000 d
b11111 #
1!
#630000
0!
#640000
b10110100 /
b10110100 O
b10110100 d
b0 )
b0 I
b0 g
b1010100 :
b1010100 `
b1010100 l
b100000 #
1!
#650000
0!
#660000
b10111000 /
b10111000 O
b10111000 d
b1010100 3
b1010100 U
b1010100 a
b100001 #
b0 :
b0 `
b0 l
1!
#670000
0!
#680000
b10111100 /
b10111100 O
b10111100 d
b0 3
b0 U
b0 a
b1010100 8
b1010100 C
b1010100 Y
b100010 #
1!
#690000
0!
#700000
b1010100 )
b1010100 I
b1010100 g
b0 8
b0 C
b0 Y
b11000000 /
b11000000 O
b11000000 d
b100011 #
1!
#710000
0!
#720000
b11000100 /
b11000100 O
b11000100 d
b0 )
b0 I
b0 g
b1010100 :
b1010100 `
b1010100 l
b100100 #
1!
#730000
0!
#740000
b11001000 /
b11001000 O
b11001000 d
b1010100 3
b1010100 U
b1010100 a
b100101 #
b0 :
b0 `
b0 l
1!
#750000
0!
#760000
b11001100 /
b11001100 O
b11001100 d
b0 3
b0 U
b0 a
b1010100 8
b1010100 C
b1010100 Y
b100110 #
1!
#770000
0!
#780000
b1010100 )
b1010100 I
b1010100 g
b0 8
b0 C
b0 Y
b11010000 /
b11010000 O
b11010000 d
b100111 #
1!
#790000
0!
#800000
b11010100 /
b11010100 O
b11010100 d
b0 )
b0 I
b0 g
b1010100 :
b1010100 `
b1010100 l
b101000 #
1!
#810000
0!
#820000
b11011000 /
b11011000 O
b11011000 d
b1010100 3
b1010100 U
b1010100 a
b101001 #
b0 :
b0 `
b0 l
1!
#830000
0!
#840000
bx 1
bx R
bx c
b11011100 /
b11011100 O
b11011100 d
b0 3
b0 U
b0 a
b1010100 8
b1010100 C
b1010100 Y
b101010 #
1!
#850000
0!
#860000
b1010100 )
b1010100 I
b1010100 g
b0 8
b0 C
b0 Y
bx =
bx F
bx V
b11100000 /
b11100000 O
b11100000 d
b101011 #
1!
#870000
0!
#880000
b11100100 /
b11100100 O
b11100100 d
b0 )
b0 I
b0 g
bx +
bx G
bx e
b1010100 :
b1010100 `
b1010100 l
b101100 #
1!
#890000
0!
#900000
b11101000 /
b11101000 O
b11101000 d
b1010100 3
b1010100 U
b1010100 a
b101101 #
bx .
bx Q
bx o
b0 :
b0 `
b0 l
1!
#910000
0!
#920000
b11101100 /
b11101100 O
b11101100 d
b0 3
b0 U
b0 a
b1010100 8
b1010100 C
b1010100 Y
b101110 #
1!
#930000
0!
#940000
b1010100 )
b1010100 I
b1010100 g
b0 8
b0 C
b0 Y
b11110000 /
b11110000 O
b11110000 d
b101111 #
1!
#950000
0!
#960000
b11110100 /
b11110100 O
b11110100 d
b0 )
b0 I
b0 g
b1010100 :
b1010100 `
b1010100 l
b110000 #
1!
#970000
0!
#980000
b11111000 /
b11111000 O
b11111000 d
b1010100 3
b1010100 U
b1010100 a
b110001 #
b0 :
b0 `
b0 l
1!
#990000
0!
#1000000
b11111100 /
b11111100 O
b11111100 d
b0 3
b0 U
b0 a
b1010100 8
b1010100 C
b1010100 Y
b110010 #
1!
#1010000
0!
#1020000
b1010100 )
b1010100 I
b1010100 g
b0 8
b0 C
b0 Y
b100000000 /
b100000000 O
b100000000 d
b110011 #
1!
#1030000
0!
#1040000
b100000100 /
b100000100 O
b100000100 d
b0 )
b0 I
b0 g
b1010100 :
b1010100 `
b1010100 l
b110100 #
1!
#1050000
0!
#1060000
b100001000 /
b100001000 O
b100001000 d
b1010100 3
b1010100 U
b1010100 a
b110101 #
b0 :
b0 `
b0 l
1!
#1070000
0!
#1080000
b100001100 /
b100001100 O
b100001100 d
b0 3
b0 U
b0 a
b1010100 8
b1010100 C
b1010100 Y
b110110 #
1!
#1090000
0!
#1100000
b1010100 )
b1010100 I
b1010100 g
b0 8
b0 C
b0 Y
b100010000 /
b100010000 O
b100010000 d
b110111 #
1!
#1110000
0!
#1120000
b100010100 /
b100010100 O
b100010100 d
b0 )
b0 I
b0 g
b1010100 :
b1010100 `
b1010100 l
b111000 #
1!
#1130000
0!
#1140000
b100011000 /
b100011000 O
b100011000 d
b1010100 3
b1010100 U
b1010100 a
b111001 #
b0 :
b0 `
b0 l
1!
#1150000
0!
#1160000
b100011100 /
b100011100 O
b100011100 d
b0 3
b0 U
b0 a
b1010100 8
b1010100 C
b1010100 Y
b111010 #
1!
#1170000
0!
#1180000
b1010100 )
b1010100 I
b1010100 g
b0 8
b0 C
b0 Y
b100100000 /
b100100000 O
b100100000 d
b111011 #
1!
#1190000
0!
#1200000
b100100100 /
b100100100 O
b100100100 d
b0 )
b0 I
b0 g
b1010100 :
b1010100 `
b1010100 l
b111100 #
1!
#1210000
0!
#1220000
b100101000 /
b100101000 O
b100101000 d
b1010100 3
b1010100 U
b1010100 a
b111101 #
b0 :
b0 `
b0 l
1!
#1230000
0!
#1240000
b100101100 /
b100101100 O
b100101100 d
b0 3
b0 U
b0 a
b1010100 8
b1010100 C
b1010100 Y
b111110 #
1!
#1250000
0!
#1260000
b1010100 )
b1010100 I
b1010100 g
b0 8
b0 C
b0 Y
b100110000 /
b100110000 O
b100110000 d
b111111 #
1!
#1270000
0!
#1280000
b100110100 /
b100110100 O
b100110100 d
b0 )
b0 I
b0 g
b1010100 :
b1010100 `
b1010100 l
b1000000 #
1!
#1290000
0!
#1300000
b100111000 /
b100111000 O
b100111000 d
b1010100 3
b1010100 U
b1010100 a
b1000001 #
b0 :
b0 `
b0 l
1!
#1310000
0!
#1320000
b100111100 /
b100111100 O
b100111100 d
b0 3
b0 U
b0 a
b1010100 8
b1010100 C
b1010100 Y
b1000010 #
1!
#1330000
0!
#1340000
b1010100 )
b1010100 I
b1010100 g
b0 8
b0 C
b0 Y
b101000000 /
b101000000 O
b101000000 d
b1000011 #
1!
#1350000
0!
#1360000
b101000100 /
b101000100 O
b101000100 d
b0 )
b0 I
b0 g
b1010100 :
b1010100 `
b1010100 l
b1000100 #
1!
#1370000
0!
#1380000
b101001000 /
b101001000 O
b101001000 d
b1010100 3
b1010100 U
b1010100 a
b1000101 #
b0 :
b0 `
b0 l
1!
#1390000
0!
#1400000
b101001100 /
b101001100 O
b101001100 d
b0 3
b0 U
b0 a
b1010100 8
b1010100 C
b1010100 Y
b1000110 #
1!
#1410000
0!
#1420000
b1010100 )
b1010100 I
b1010100 g
b0 8
b0 C
b0 Y
b101010000 /
b101010000 O
b101010000 d
b1000111 #
1!
#1430000
0!
#1440000
b101010100 /
b101010100 O
b101010100 d
b0 )
b0 I
b0 g
b1010100 :
b1010100 `
b1010100 l
b1001000 #
1!
#1450000
0!
#1460000
b101011000 /
b101011000 O
b101011000 d
b1010100 3
b1010100 U
b1010100 a
b1001001 #
b0 :
b0 `
b0 l
1!
#1470000
0!
#1480000
b101011100 /
b101011100 O
b101011100 d
b0 3
b0 U
b0 a
b1010100 8
b1010100 C
b1010100 Y
b1001010 #
1!
#1490000
0!
#1500000
b1010100 )
b1010100 I
b1010100 g
b0 8
b0 C
b0 Y
b101100000 /
b101100000 O
b101100000 d
b1001011 #
1!
#1510000
0!
#1520000
b101100100 /
b101100100 O
b101100100 d
b0 )
b0 I
b0 g
b1010100 :
b1010100 `
b1010100 l
b1001100 #
1!
#1530000
0!
#1540000
b101101000 /
b101101000 O
b101101000 d
b1010100 3
b1010100 U
b1010100 a
b1001101 #
b0 :
b0 `
b0 l
1!
#1550000
0!
#1560000
b101101100 /
b101101100 O
b101101100 d
b0 3
b0 U
b0 a
b1010100 8
b1010100 C
b1010100 Y
b1001110 #
1!
#1570000
0!
#1580000
b1010100 )
b1010100 I
b1010100 g
b0 8
b0 C
b0 Y
b101110000 /
b101110000 O
b101110000 d
b1001111 #
1!
#1590000
0!
#1600000
b101110100 /
b101110100 O
b101110100 d
b0 )
b0 I
b0 g
b1010100 :
b1010100 `
b1010100 l
b1010000 #
1!
#1610000
0!
#1620000
b101111000 /
b101111000 O
b101111000 d
b1010100 3
b1010100 U
b1010100 a
b1010001 #
b0 :
b0 `
b0 l
1!
#1630000
0!
#1640000
b101111100 /
b101111100 O
b101111100 d
b0 3
b0 U
b0 a
b1010100 8
b1010100 C
b1010100 Y
b1010010 #
1!
#1650000
0!
#1660000
b1010100 )
b1010100 I
b1010100 g
b0 8
b0 C
b0 Y
b110000000 /
b110000000 O
b110000000 d
b1010011 #
1!
#1670000
0!
#1680000
b110000100 /
b110000100 O
b110000100 d
b0 )
b0 I
b0 g
b1010100 :
b1010100 `
b1010100 l
b1010100 #
1!
#1690000
0!
#1700000
b110001000 /
b110001000 O
b110001000 d
b1010100 3
b1010100 U
b1010100 a
b1010101 #
b0 :
b0 `
b0 l
1!
#1710000
0!
#1720000
b110001100 /
b110001100 O
b110001100 d
b0 3
b0 U
b0 a
b1010100 8
b1010100 C
b1010100 Y
b1010110 #
1!
#1730000
0!
#1740000
b1010100 )
b1010100 I
b1010100 g
b110010000 /
b110010000 O
b110010000 d
b1010111 #
1!
